<?xml version="1.0" encoding="UTF-8" standalone="no"?>
<graphml xmlns="http://graphml.graphdrawing.org/xmlns" xmlns:java="http://www.yworks.com/xml/yfiles-common/1.0/java" xmlns:sys="http://www.yworks.com/xml/yfiles-common/markup/primitives/2.0" xmlns:x="http://www.yworks.com/xml/yfiles-common/markup/2.0" xmlns:xsi="http://www.w3.org/2001/XMLSchema-instance" xmlns:y="http://www.yworks.com/xml/graphml" xmlns:yed="http://www.yworks.com/xml/yed/3" xsi:schemaLocation="http://graphml.graphdrawing.org/xmlns http://www.yworks.com/xml/schema/graphml/1.1/ygraphml.xsd">
  <!--Created by yEd 3.18.0.2-->
  <key attr.name="Description" attr.type="string" for="graph" id="d0"/>
  <key for="port" id="d1" yfiles.type="portgraphics"/>
  <key for="port" id="d2" yfiles.type="portgeometry"/>
  <key for="port" id="d3" yfiles.type="portuserdata"/>
  <key attr.name="url" attr.type="string" for="node" id="d4"/>
  <key attr.name="description" attr.type="string" for="node" id="d5"/>
  <key for="node" id="d6" yfiles.type="nodegraphics"/>
  <key for="graphml" id="d7" yfiles.type="resources"/>
  <key attr.name="url" attr.type="string" for="edge" id="d8"/>
  <key attr.name="description" attr.type="string" for="edge" id="d9"/>
  <key for="edge" id="d10" yfiles.type="edgegraphics"/>
  <graph edgedefault="directed" id="G">
    <data key="d0"/>
    <node id="n0" yfiles.foldertype="group">
      <data key="d6">
        <y:TableNode configuration="com.yworks.bpmn.Pool">
          <y:Geometry height="756.614222337107" width="551.6678140475274" x="186.4405391666548" y="275.44043196042696"/>
          <y:Fill color="#FFF2BC" color2="#D4D4D4CC" transparent="false"/>
          <y:BorderStyle color="#000000" type="line" width="1.0"/>
          <y:NodeLabel alignment="center" autoSizePolicy="content" fontFamily="Dialog" fontSize="15" fontStyle="plain" hasBackgroundColor="false" hasLineColor="false" height="22.37646484375" horizontalTextPosition="center" iconTextGap="4" modelName="internal" modelPosition="t" textColor="#000000" verticalTextPosition="bottom" visible="true" width="139.908203125" x="205.8798054612637" y="4.0">Pipeline for drawing </y:NodeLabel>
          <y:StyleProperties>
            <y:Property name="y.view.tabular.TableNodePainter.ALTERNATE_ROW_STYLE">
              <y:SimpleStyle fillColor="#474A4340" lineColor="#000000" lineType="line" lineWidth="1.0"/>
            </y:Property>
            <y:Property class="java.awt.Color" name="com.yworks.bpmn.icon.line.color" value="#000000"/>
            <y:Property name="y.view.tabular.TableNodePainter.ALTERNATE_COLUMN_SELECTION_STYLE">
              <y:SimpleStyle fillColor="#474A4380" lineColor="#000000" lineType="line" lineWidth="3.0"/>
            </y:Property>
            <y:Property name="y.view.tabular.TableNodePainter.ALTERNATE_ROW_SELECTION_STYLE">
              <y:SimpleStyle fillColor="#474A4380" lineColor="#000000" lineType="line" lineWidth="3.0"/>
            </y:Property>
            <y:Property class="java.awt.Color" name="POOL_LANE_COLOR_ALTERNATING" value="#ffffff"/>
            <y:Property class="java.awt.Color" name="POOL_LANE_COLOR_MAIN" value="#ffffff"/>
            <y:Property class="java.lang.String" name="POOL_LANE_STYLE" value="LANE_STYLE_COLUMNS"/>
            <y:Property class="java.awt.Color" name="com.yworks.bpmn.icon.fill2" value="#d4d4d4cc"/>
            <y:Property class="java.awt.Color" name="com.yworks.bpmn.icon.fill" value="#ffffffe6"/>
            <y:Property class="com.yworks.yfiles.bpmn.view.BPMNTypeEnum" name="com.yworks.bpmn.type" value="POOL_TYPE_COLUMN"/>
            <y:Property name="y.view.tabular.TableNodePainter.ALTERNATE_COLUMN_STYLE">
              <y:SimpleStyle fillColor="#474A4340" lineColor="#000000" lineType="line" lineWidth="1.0"/>
            </y:Property>
          </y:StyleProperties>
          <y:State autoResize="true" closed="false" closedHeight="80.0" closedWidth="100.0"/>
          <y:Insets bottom="0" bottomF="0.0" left="0" leftF="0.0" right="0" rightF="0.0" top="0" topF="0.0"/>
          <y:BorderInsets bottom="16" bottomF="16.41646139432521" left="0" leftF="0.0" right="15" rightF="15.416946964182216" top="13" topF="12.6494140625"/>
          <y:Table autoResizeTable="true" defaultColumnWidth="202.0" defaultMinimumColumnWidth="30.0" defaultMinimumRowHeight="30.0" defaultRowHeight="280.0">
            <y:DefaultColumnInsets bottom="0.0" left="0.0" right="0.0" top="0.0"/>
            <y:DefaultRowInsets bottom="3.0" left="20.0" right="3.0" top="3.0"/>
            <y:Insets bottom="0.0" left="0.0" right="0.0" top="30.0"/>
            <y:Columns>
              <y:Column id="column_0" minimumWidth="65.357421875" width="528.6678140475274">
                <y:Insets bottom="0.0" left="0.0" right="0.0" top="0.0"/>
              </y:Column>
            </y:Columns>
            <y:Rows>
              <y:Row height="726.614222337107" id="row_0" minimumHeight="30.0">
                <y:Insets bottom="3.0" left="20.0" right="3.0" top="3.0"/>
              </y:Row>
            </y:Rows>
          </y:Table>
        </y:TableNode>
      </data>
      <graph edgedefault="directed" id="n0:">
        <node id="n0::n0" yfiles.foldertype="group">
          <data key="d6">
            <y:TableNode configuration="com.yworks.bpmn.Pool">
              <y:Geometry height="697.5483468802818" width="237.25382473711863" x="206.4405391666548" y="318.08984602292696"/>
              <y:Fill color="#CCFFCC" color2="#D4D4D4CC" transparent="false"/>
              <y:BorderStyle color="#000000" type="line" width="1.0"/>
              <y:NodeLabel alignment="center" autoSizePolicy="content" fontFamily="Dialog" fontSize="15" fontStyle="plain" hasBackgroundColor="false" hasLineColor="false" height="22.37646484375" horizontalTextPosition="center" iconTextGap="4" modelName="internal" modelPosition="t" textColor="#000000" verticalTextPosition="bottom" visible="true" width="59.0341796875" x="89.10982252480932" y="4.0">glwidget</y:NodeLabel>
              <y:NodeLabel alignment="center" autoSizePolicy="content" fontFamily="Dialog" fontSize="12" fontStyle="plain" hasBackgroundColor="false" hasLineColor="false" hasText="false" height="4.0" horizontalTextPosition="center" iconTextGap="4" modelName="custom" textColor="#000000" verticalTextPosition="bottom" visible="true" width="4.0" x="125.12691236855932" y="33.0">
                <y:LabelModel>
                  <y:ColumnNodeLabelModel offset="3.0"/>
                </y:LabelModel>
                <y:ModelParameter>
                  <y:ColumnNodeLabelModelParameter id="column_0" inside="true" verticalPosition="0.0"/>
                </y:ModelParameter>
              </y:NodeLabel>
              <y:StyleProperties>
                <y:Property name="y.view.tabular.TableNodePainter.ALTERNATE_ROW_STYLE">
                  <y:SimpleStyle fillColor="#474A4340" lineColor="#000000" lineType="line" lineWidth="1.0"/>
                </y:Property>
                <y:Property class="java.awt.Color" name="com.yworks.bpmn.icon.line.color" value="#000000"/>
                <y:Property name="y.view.tabular.TableNodePainter.ALTERNATE_COLUMN_SELECTION_STYLE">
                  <y:SimpleStyle fillColor="#474A4380" lineColor="#000000" lineType="line" lineWidth="3.0"/>
                </y:Property>
                <y:Property name="y.view.tabular.TableNodePainter.ALTERNATE_ROW_SELECTION_STYLE">
                  <y:SimpleStyle fillColor="#474A4380" lineColor="#000000" lineType="line" lineWidth="3.0"/>
                </y:Property>
                <y:Property class="java.awt.Color" name="POOL_LANE_COLOR_ALTERNATING" value="#ffffff"/>
                <y:Property class="java.awt.Color" name="POOL_LANE_COLOR_MAIN" value="#ffffff"/>
                <y:Property class="java.lang.String" name="POOL_LANE_STYLE" value="LANE_STYLE_COLUMNS"/>
                <y:Property class="java.awt.Color" name="com.yworks.bpmn.icon.fill2" value="#d4d4d4cc"/>
                <y:Property class="java.awt.Color" name="com.yworks.bpmn.icon.fill" value="#ffffffe6"/>
                <y:Property class="com.yworks.yfiles.bpmn.view.BPMNTypeEnum" name="com.yworks.bpmn.type" value="POOL_TYPE_COLUMN"/>
                <y:Property name="y.view.tabular.TableNodePainter.ALTERNATE_COLUMN_STYLE">
                  <y:SimpleStyle fillColor="#474A4340" lineColor="#000000" lineType="line" lineWidth="1.0"/>
                </y:Property>
              </y:StyleProperties>
              <y:State autoResize="true" closed="false" closedHeight="80.0" closedWidth="100.0"/>
              <y:Insets bottom="0" bottomF="0.0" left="0" leftF="0.0" right="0" rightF="0.0" top="0" topF="0.0"/>
              <y:BorderInsets bottom="7" bottomF="6.54834688028177" left="0" leftF="0.0" right="4" rightF="4.179306643978634" top="0" topF="0.0"/>
              <y:Table autoResizeTable="true" defaultColumnWidth="202.0" defaultMinimumColumnWidth="30.0" defaultMinimumRowHeight="30.0" defaultRowHeight="280.0">
                <y:DefaultColumnInsets bottom="3.0" left="3.0" right="3.0" top="20.0"/>
                <y:DefaultRowInsets bottom="3.0" left="20.0" right="3.0" top="3.0"/>
                <y:Insets bottom="0.0" left="0.0" right="0.0" top="30.0"/>
                <y:Columns>
                  <y:Column id="column_0" minimumWidth="65.357421875" width="214.25382473711863">
                    <y:Insets bottom="3.0" left="3.0" right="3.0" top="20.0"/>
                  </y:Column>
                </y:Columns>
                <y:Rows>
                  <y:Row height="644.5483468802818" id="row_0" minimumHeight="30.0">
                    <y:Insets bottom="3.0" left="20.0" right="3.0" top="3.0"/>
                  </y:Row>
                </y:Rows>
              </y:Table>
            </y:TableNode>
          </data>
          <graph edgedefault="directed" id="n0::n0:">
            <node id="n0::n0::n0">
              <data key="d6">
                <y:GenericNode configuration="com.yworks.bpmn.Event.withShadow">
                  <y:Geometry height="30.0" width="30.0" x="251.6498228847948" y="368.08984602292696"/>
                  <y:Fill color="#FFFFFFE6" color2="#D4D4D4CC" transparent="false"/>
                  <y:BorderStyle color="#27AE27" type="line" width="1.0"/>
                  <y:NodeLabel alignment="center" autoSizePolicy="content" fontFamily="Dialog" fontSize="12" fontStyle="plain" hasBackgroundColor="false" hasLineColor="false" height="18.701171875" horizontalTextPosition="center" iconTextGap="4" modelName="custom" textColor="#000000" verticalTextPosition="bottom" visible="true" width="40.69140625" x="34.0" y="4.0">repaint<y:LabelModel>
                      <y:SmartNodeLabelModel distance="4.0"/>
                    </y:LabelModel>
                    <y:ModelParameter>
                      <y:SmartNodeLabelModelParameter labelRatioX="-0.5" labelRatioY="-0.5" nodeRatioX="0.5" nodeRatioY="-0.5" offsetX="4.0" offsetY="4.0" upX="0.0" upY="-1.0"/>
                    </y:ModelParameter>
                  </y:NodeLabel>
                  <y:StyleProperties>
                    <y:Property class="java.awt.Color" name="com.yworks.bpmn.icon.line.color" value="#000000"/>
                    <y:Property class="com.yworks.yfiles.bpmn.view.EventCharEnum" name="com.yworks.bpmn.characteristic" value="EVENT_CHARACTERISTIC_START"/>
                    <y:Property class="java.awt.Color" name="com.yworks.bpmn.icon.fill2" value="#d4d4d4cc"/>
                    <y:Property class="java.awt.Color" name="com.yworks.bpmn.icon.fill" value="#ffffffe6"/>
                    <y:Property class="com.yworks.yfiles.bpmn.view.BPMNTypeEnum" name="com.yworks.bpmn.type" value="EVENT_TYPE_SIGNAL"/>
                  </y:StyleProperties>
                </y:GenericNode>
              </data>
            </node>
            <node id="n0::n0::n1">
              <data key="d6">
                <y:GenericNode configuration="com.yworks.bpmn.Event.withShadow">
                  <y:Geometry height="30.0" width="30.0" x="251.6498228847948" y="428.08984602292696"/>
                  <y:Fill color="#FFFFFFE6" color2="#D4D4D4CC" transparent="false"/>
                  <y:BorderStyle color="#27AE27" type="line" width="1.0"/>
                  <y:NodeLabel alignment="center" autoSizePolicy="content" fontFamily="Dialog" fontSize="12" fontStyle="plain" hasBackgroundColor="false" hasLineColor="false" height="18.701171875" horizontalTextPosition="center" iconTextGap="4" modelName="custom" textColor="#000000" verticalTextPosition="bottom" visible="true" width="46.029296875" x="34.0" y="5.6494140625">paintGL<y:LabelModel>
                      <y:SmartNodeLabelModel distance="4.0"/>
                    </y:LabelModel>
                    <y:ModelParameter>
                      <y:SmartNodeLabelModelParameter labelRatioX="-0.5" labelRatioY="0.0" nodeRatioX="0.5" nodeRatioY="0.0" offsetX="4.0" offsetY="0.0" upX="0.0" upY="-1.0"/>
                    </y:ModelParameter>
                  </y:NodeLabel>
                  <y:StyleProperties>
                    <y:Property class="java.awt.Color" name="com.yworks.bpmn.icon.line.color" value="#000000"/>
                    <y:Property class="com.yworks.yfiles.bpmn.view.EventCharEnum" name="com.yworks.bpmn.characteristic" value="EVENT_CHARACTERISTIC_START"/>
                    <y:Property class="java.awt.Color" name="com.yworks.bpmn.icon.fill2" value="#d4d4d4cc"/>
                    <y:Property class="java.awt.Color" name="com.yworks.bpmn.icon.fill" value="#ffffffe6"/>
                    <y:Property class="com.yworks.yfiles.bpmn.view.BPMNTypeEnum" name="com.yworks.bpmn.type" value="EVENT_TYPE_PLAIN"/>
                  </y:StyleProperties>
                </y:GenericNode>
              </data>
            </node>
            <node id="n0::n0::n2">
              <data key="d6">
                <y:GenericNode configuration="com.yworks.bpmn.Event.withShadow">
                  <y:Geometry height="30.0" width="30.0" x="251.6498228847948" y="968.089846022927"/>
                  <y:Fill color="#FFFFFFE6" color2="#D4D4D4CC" transparent="false"/>
                  <y:BorderStyle color="#B11F1F" type="line" width="1.0"/>
                  <y:NodeLabel alignment="center" autoSizePolicy="content" fontFamily="Dialog" fontSize="12" fontStyle="plain" hasBackgroundColor="false" hasLineColor="false" hasText="false" height="4.0" horizontalTextPosition="center" iconTextGap="4" modelName="custom" textColor="#000000" verticalTextPosition="bottom" visible="true" width="4.0" x="13.0" y="34.0">
                    <y:LabelModel>
                      <y:SmartNodeLabelModel distance="4.0"/>
                    </y:LabelModel>
                    <y:ModelParameter>
                      <y:SmartNodeLabelModelParameter labelRatioX="0.0" labelRatioY="-0.5" nodeRatioX="0.0" nodeRatioY="0.5" offsetX="0.0" offsetY="4.0" upX="0.0" upY="-1.0"/>
                    </y:ModelParameter>
                  </y:NodeLabel>
                  <y:StyleProperties>
                    <y:Property class="java.awt.Color" name="com.yworks.bpmn.icon.line.color" value="#000000"/>
                    <y:Property class="com.yworks.yfiles.bpmn.view.EventCharEnum" name="com.yworks.bpmn.characteristic" value="EVENT_CHARACTERISTIC_END"/>
                    <y:Property class="java.awt.Color" name="com.yworks.bpmn.icon.fill2" value="#d4d4d4cc"/>
                    <y:Property class="java.awt.Color" name="com.yworks.bpmn.icon.fill" value="#ffffffe6"/>
                    <y:Property class="com.yworks.yfiles.bpmn.view.BPMNTypeEnum" name="com.yworks.bpmn.type" value="EVENT_TYPE_TERMINATE"/>
                  </y:StyleProperties>
                </y:GenericNode>
              </data>
            </node>
            <node id="n0::n0::n3">
              <data key="d6">
                <y:GenericNode configuration="com.yworks.bpmn.Gateway.withShadow">
                  <y:Geometry height="45.0" width="45.0" x="244.1498228847948" y="610.2893582816013"/>
                  <y:Fill color="#FFFFFFE6" color2="#D4D4D4CC" transparent="false"/>
                  <y:BorderStyle color="#E38B00" type="line" width="1.0"/>
                  <y:NodeLabel alignment="center" autoSizePolicy="content" borderDistance="-5.0" fontFamily="Dialog" fontSize="12" fontStyle="plain" hasBackgroundColor="false" hasLineColor="false" height="18.701171875" horizontalTextPosition="center" iconTextGap="4" modelName="corners" modelPosition="ne" textColor="#000000" verticalTextPosition="bottom" visible="true" width="100.71484375" x="40.0" y="-18.701171875">have_click_point()</y:NodeLabel>
                  <y:StyleProperties>
                    <y:Property class="java.awt.Color" name="com.yworks.bpmn.icon.line.color" value="#000000"/>
                    <y:Property class="java.awt.Color" name="com.yworks.bpmn.icon.fill2" value="#d4d4d4cc"/>
                    <y:Property class="java.awt.Color" name="com.yworks.bpmn.icon.fill" value="#ffffffe6"/>
                    <y:Property class="com.yworks.yfiles.bpmn.view.BPMNTypeEnum" name="com.yworks.bpmn.type" value="GATEWAY_TYPE_PLAIN"/>
                  </y:StyleProperties>
                </y:GenericNode>
              </data>
            </node>
            <node id="n0::n0::n4">
              <data key="d6">
                <y:GenericNode configuration="com.yworks.bpmn.Gateway.withShadow">
                  <y:Geometry height="45.0" width="45.0" x="319.1498228847948" y="685.2893582816013"/>
                  <y:Fill color="#FFFFFFE6" color2="#D4D4D4CC" transparent="false"/>
                  <y:BorderStyle color="#E38B00" type="line" width="1.0"/>
                  <y:NodeLabel alignment="center" autoSizePolicy="content" borderDistance="-5.0" fontFamily="Dialog" fontSize="12" fontStyle="plain" hasBackgroundColor="false" hasLineColor="false" height="18.701171875" horizontalTextPosition="center" iconTextGap="4" modelName="corners" modelPosition="ne" textColor="#000000" verticalTextPosition="bottom" visible="true" width="77.365234375" x="40.0" y="-18.701171875">have_vertex()</y:NodeLabel>
                  <y:StyleProperties>
                    <y:Property class="java.awt.Color" name="com.yworks.bpmn.icon.line.color" value="#000000"/>
                    <y:Property class="java.awt.Color" name="com.yworks.bpmn.icon.fill2" value="#d4d4d4cc"/>
                    <y:Property class="java.awt.Color" name="com.yworks.bpmn.icon.fill" value="#ffffffe6"/>
                    <y:Property class="com.yworks.yfiles.bpmn.view.BPMNTypeEnum" name="com.yworks.bpmn.type" value="GATEWAY_TYPE_PLAIN"/>
                  </y:StyleProperties>
                </y:GenericNode>
              </data>
            </node>
            <node id="n0::n0::n5">
              <data key="d6">
                <y:GenericNode configuration="com.yworks.bpmn.Activity.withShadow">
                  <y:Geometry height="20.0" width="140.41856743628" x="226.4405391666548" y="786.6896021522641"/>
                  <y:Fill color="#FFFFFFE6" color2="#D4D4D4CC" transparent="false"/>
                  <y:BorderStyle color="#123EA2" type="line" width="1.0"/>
                  <y:NodeLabel alignment="center" autoSizePolicy="content" fontFamily="Dialog" fontSize="12" fontStyle="plain" hasBackgroundColor="false" hasLineColor="false" height="18.701171875" horizontalTextPosition="center" iconTextGap="4" modelName="custom" textColor="#000000" verticalTextPosition="bottom" visible="true" width="126.07421875" x="7.17217434314" y="0.6494140625">clear_opengl_context()<y:LabelModel>
                      <y:SmartNodeLabelModel distance="4.0"/>
                    </y:LabelModel>
                    <y:ModelParameter>
                      <y:SmartNodeLabelModelParameter labelRatioX="0.0" labelRatioY="0.0" nodeRatioX="0.0" nodeRatioY="0.0" offsetX="0.0" offsetY="0.0" upX="0.0" upY="-1.0"/>
                    </y:ModelParameter>
                  </y:NodeLabel>
                  <y:StyleProperties>
                    <y:Property class="java.awt.Color" name="com.yworks.bpmn.icon.line.color" value="#000000"/>
                    <y:Property class="com.yworks.yfiles.bpmn.view.TaskTypeEnum" name="com.yworks.bpmn.taskType" value="TASK_TYPE_ABSTRACT"/>
                    <y:Property class="java.awt.Color" name="com.yworks.bpmn.icon.fill2" value="#d4d4d4cc"/>
                    <y:Property class="java.awt.Color" name="com.yworks.bpmn.icon.fill" value="#ffffffe6"/>
                    <y:Property class="com.yworks.yfiles.bpmn.view.BPMNTypeEnum" name="com.yworks.bpmn.type" value="ACTIVITY_TYPE"/>
                    <y:Property class="com.yworks.yfiles.bpmn.view.ActivityTypeEnum" name="com.yworks.bpmn.activityType" value="ACTIVITY_TYPE_TASK"/>
                  </y:StyleProperties>
                </y:GenericNode>
              </data>
            </node>
          </graph>
        </node>
        <node id="n0::n1" yfiles.foldertype="group">
          <data key="d6">
            <y:TableNode configuration="com.yworks.bpmn.Pool">
              <y:Geometry height="332.92820277025737" width="182.29700853640742" x="456.6573842886292" y="572.7893582816013"/>
              <y:Fill color="#99CC00" color2="#D4D4D4CC" transparent="false"/>
              <y:BorderStyle color="#000000" type="line" width="1.0"/>
              <y:NodeLabel alignment="center" autoSizePolicy="content" fontFamily="Dialog" fontSize="15" fontStyle="plain" hasBackgroundColor="false" hasLineColor="false" height="22.37646484375" horizontalTextPosition="center" iconTextGap="4" modelName="internal" modelPosition="t" textColor="#000000" verticalTextPosition="bottom" visible="true" width="111.548828125" x="35.37409020570368" y="4.0">abstract_drawer</y:NodeLabel>
              <y:NodeLabel alignment="center" autoSizePolicy="content" fontFamily="Dialog" fontSize="12" fontStyle="plain" hasBackgroundColor="false" hasLineColor="false" hasText="false" height="4.0" horizontalTextPosition="center" iconTextGap="4" modelName="custom" textColor="#000000" verticalTextPosition="bottom" visible="true" width="4.0" x="97.64850426820368" y="33.0">
                <y:LabelModel>
                  <y:ColumnNodeLabelModel offset="3.0"/>
                </y:LabelModel>
                <y:ModelParameter>
                  <y:ColumnNodeLabelModelParameter id="column_0" inside="true" verticalPosition="0.0"/>
                </y:ModelParameter>
              </y:NodeLabel>
              <y:StyleProperties>
                <y:Property name="y.view.tabular.TableNodePainter.ALTERNATE_ROW_STYLE">
                  <y:SimpleStyle fillColor="#474A4340" lineColor="#000000" lineType="line" lineWidth="1.0"/>
                </y:Property>
                <y:Property class="java.awt.Color" name="com.yworks.bpmn.icon.line.color" value="#000000"/>
                <y:Property name="y.view.tabular.TableNodePainter.ALTERNATE_COLUMN_SELECTION_STYLE">
                  <y:SimpleStyle fillColor="#474A4380" lineColor="#000000" lineType="line" lineWidth="3.0"/>
                </y:Property>
                <y:Property name="y.view.tabular.TableNodePainter.ALTERNATE_ROW_SELECTION_STYLE">
                  <y:SimpleStyle fillColor="#474A4380" lineColor="#000000" lineType="line" lineWidth="3.0"/>
                </y:Property>
                <y:Property class="java.awt.Color" name="POOL_LANE_COLOR_ALTERNATING" value="#ffffff"/>
                <y:Property class="java.awt.Color" name="POOL_LANE_COLOR_MAIN" value="#ffffff"/>
                <y:Property class="java.lang.String" name="POOL_LANE_STYLE" value="LANE_STYLE_COLUMNS"/>
                <y:Property class="java.awt.Color" name="com.yworks.bpmn.icon.fill2" value="#d4d4d4cc"/>
                <y:Property class="java.awt.Color" name="com.yworks.bpmn.icon.fill" value="#ffffffe6"/>
                <y:Property class="com.yworks.yfiles.bpmn.view.BPMNTypeEnum" name="com.yworks.bpmn.type" value="POOL_TYPE_COLUMN"/>
                <y:Property name="y.view.tabular.TableNodePainter.ALTERNATE_COLUMN_STYLE">
                  <y:SimpleStyle fillColor="#474A4340" lineColor="#000000" lineType="line" lineWidth="1.0"/>
                </y:Property>
              </y:StyleProperties>
              <y:State autoResize="true" closed="false" closedHeight="80.0" closedWidth="100.0"/>
              <y:Insets bottom="0" bottomF="0.0" left="0" leftF="0.0" right="0" rightF="0.0" top="0" topF="0.0"/>
              <y:BorderInsets bottom="30" bottomF="29.627715028931675" left="2" leftF="2.290882088592639" right="18" rightF="17.513931394712017" top="0" topF="0.0"/>
              <y:Table autoResizeTable="true" defaultColumnWidth="202.0" defaultMinimumColumnWidth="30.0" defaultMinimumRowHeight="30.0" defaultRowHeight="280.0">
                <y:DefaultColumnInsets bottom="3.0" left="3.0" right="3.0" top="20.0"/>
                <y:DefaultRowInsets bottom="3.0" left="20.0" right="3.0" top="3.0"/>
                <y:Insets bottom="0.0" left="0.0" right="0.0" top="30.0"/>
                <y:Columns>
                  <y:Column id="column_0" minimumWidth="65.357421875" width="159.29700853640742">
                    <y:Insets bottom="3.0" left="3.0" right="3.0" top="20.0"/>
                  </y:Column>
                </y:Columns>
                <y:Rows>
                  <y:Row height="279.92820277025737" id="row_0" minimumHeight="30.0">
                    <y:Insets bottom="3.0" left="20.0" right="3.0" top="3.0"/>
                  </y:Row>
                </y:Rows>
              </y:Table>
            </y:TableNode>
          </data>
          <graph edgedefault="directed" id="n0::n1:">
            <node id="n0::n1::n0">
              <data key="d6">
                <y:GenericNode configuration="com.yworks.bpmn.Activity.withShadow">
                  <y:Geometry height="20.0" width="139.49219505310282" x="478.94826637722184" y="622.7893582816013"/>
                  <y:Fill color="#FFFFFFE6" color2="#D4D4D4CC" transparent="false"/>
                  <y:BorderStyle color="#123EA2" type="line" width="1.0"/>
                  <y:NodeLabel alignment="center" autoSizePolicy="content" fontFamily="Dialog" fontSize="12" fontStyle="plain" hasBackgroundColor="false" hasLineColor="false" height="18.701171875" horizontalTextPosition="center" iconTextGap="4" modelName="custom" textColor="#000000" verticalTextPosition="bottom" visible="true" width="136.05859375" x="1.7168006515514094" y="0.6494140625">get_vertex_from_buffer()<y:LabelModel>
                      <y:SmartNodeLabelModel distance="4.0"/>
                    </y:LabelModel>
                    <y:ModelParameter>
                      <y:SmartNodeLabelModelParameter labelRatioX="0.0" labelRatioY="0.0" nodeRatioX="0.0" nodeRatioY="0.0" offsetX="0.0" offsetY="0.0" upX="0.0" upY="-1.0"/>
                    </y:ModelParameter>
                  </y:NodeLabel>
                  <y:StyleProperties>
                    <y:Property class="java.awt.Color" name="com.yworks.bpmn.icon.line.color" value="#000000"/>
                    <y:Property class="com.yworks.yfiles.bpmn.view.TaskTypeEnum" name="com.yworks.bpmn.taskType" value="TASK_TYPE_ABSTRACT"/>
                    <y:Property class="java.awt.Color" name="com.yworks.bpmn.icon.fill2" value="#d4d4d4cc"/>
                    <y:Property class="java.awt.Color" name="com.yworks.bpmn.icon.fill" value="#ffffffe6"/>
                    <y:Property class="com.yworks.yfiles.bpmn.view.BPMNTypeEnum" name="com.yworks.bpmn.type" value="ACTIVITY_TYPE"/>
                    <y:Property class="com.yworks.yfiles.bpmn.view.ActivityTypeEnum" name="com.yworks.bpmn.activityType" value="ACTIVITY_TYPE_TASK"/>
                  </y:StyleProperties>
                </y:GenericNode>
              </data>
            </node>
            <node id="n0::n1::n1">
              <data key="d6">
                <y:GenericNode configuration="com.yworks.bpmn.Activity.withShadow">
                  <y:Geometry height="20.0" width="120.96902462591743" x="478.94826637722196" y="697.7893582816013"/>
                  <y:Fill color="#FFFFFFE6" color2="#D4D4D4CC" transparent="false"/>
                  <y:BorderStyle color="#123EA2" type="line" width="1.0"/>
                  <y:NodeLabel alignment="center" autoSizePolicy="content" fontFamily="Dialog" fontSize="12" fontStyle="plain" hasBackgroundColor="false" hasLineColor="false" height="18.701171875" horizontalTextPosition="center" iconTextGap="4" modelName="custom" textColor="#000000" verticalTextPosition="bottom" visible="true" width="112.7265625" x="4.121231062958657" y="0.6494140625">add_picked_vertex()<y:LabelModel>
                      <y:SmartNodeLabelModel distance="4.0"/>
                    </y:LabelModel>
                    <y:ModelParameter>
                      <y:SmartNodeLabelModelParameter labelRatioX="0.0" labelRatioY="0.0" nodeRatioX="0.0" nodeRatioY="0.0" offsetX="0.0" offsetY="0.0" upX="0.0" upY="-1.0"/>
                    </y:ModelParameter>
                  </y:NodeLabel>
                  <y:StyleProperties>
                    <y:Property class="java.awt.Color" name="com.yworks.bpmn.icon.line.color" value="#000000"/>
                    <y:Property class="com.yworks.yfiles.bpmn.view.TaskTypeEnum" name="com.yworks.bpmn.taskType" value="TASK_TYPE_ABSTRACT"/>
                    <y:Property class="java.awt.Color" name="com.yworks.bpmn.icon.fill2" value="#d4d4d4cc"/>
                    <y:Property class="java.awt.Color" name="com.yworks.bpmn.icon.fill" value="#ffffffe6"/>
                    <y:Property class="com.yworks.yfiles.bpmn.view.BPMNTypeEnum" name="com.yworks.bpmn.type" value="ACTIVITY_TYPE"/>
                    <y:Property class="com.yworks.yfiles.bpmn.view.ActivityTypeEnum" name="com.yworks.bpmn.activityType" value="ACTIVITY_TYPE_TASK"/>
                  </y:StyleProperties>
                </y:GenericNode>
              </data>
            </node>
            <node id="n0::n1::n2">
              <data key="d6">
                <y:GenericNode configuration="com.yworks.bpmn.Activity.withShadow">
                  <y:Geometry height="20.0" width="45.0" x="478.94826637722196" y="853.089846022927"/>
                  <y:Fill color="#FFFFFFE6" color2="#D4D4D4CC" transparent="false"/>
                  <y:BorderStyle color="#123EA2" type="line" width="1.0"/>
                  <y:NodeLabel alignment="center" autoSizePolicy="content" fontFamily="Dialog" fontSize="12" fontStyle="plain" hasBackgroundColor="false" hasLineColor="false" height="18.701171875" horizontalTextPosition="center" iconTextGap="4" modelName="custom" textColor="#000000" verticalTextPosition="bottom" visible="true" width="38.001953125" x="3.4990234375" y="0.6494140625">draw()<y:LabelModel>
                      <y:SmartNodeLabelModel distance="4.0"/>
                    </y:LabelModel>
                    <y:ModelParameter>
                      <y:SmartNodeLabelModelParameter labelRatioX="0.0" labelRatioY="0.0" nodeRatioX="0.0" nodeRatioY="0.0" offsetX="0.0" offsetY="0.0" upX="0.0" upY="-1.0"/>
                    </y:ModelParameter>
                  </y:NodeLabel>
                  <y:StyleProperties>
                    <y:Property class="java.awt.Color" name="com.yworks.bpmn.icon.line.color" value="#000000"/>
                    <y:Property class="com.yworks.yfiles.bpmn.view.TaskTypeEnum" name="com.yworks.bpmn.taskType" value="TASK_TYPE_ABSTRACT"/>
                    <y:Property class="java.awt.Color" name="com.yworks.bpmn.icon.fill2" value="#d4d4d4cc"/>
                    <y:Property class="java.awt.Color" name="com.yworks.bpmn.icon.fill" value="#ffffffe6"/>
                    <y:Property class="com.yworks.yfiles.bpmn.view.BPMNTypeEnum" name="com.yworks.bpmn.type" value="ACTIVITY_TYPE"/>
                    <y:Property class="com.yworks.yfiles.bpmn.view.ActivityTypeEnum" name="com.yworks.bpmn.activityType" value="ACTIVITY_TYPE_TASK"/>
                  </y:StyleProperties>
                </y:GenericNode>
              </data>
            </node>
          </graph>
        </node>
        <node id="n0::n2">
          <data key="d6">
            <y:GenericNode configuration="com.yworks.bpmn.Event.withShadow">
              <y:Geometry height="30.0" width="30.0" x="473.6943639037734" y="368.08984602292696"/>
              <y:Fill color="#FFFFFFE6" color2="#D4D4D4CC" transparent="false"/>
              <y:BorderStyle color="#27AE27" type="line" width="1.0"/>
              <y:NodeLabel alignment="center" autoSizePolicy="content" fontFamily="Dialog" fontSize="12" fontStyle="plain" hasBackgroundColor="false" hasLineColor="false" height="18.701171875" horizontalTextPosition="center" iconTextGap="4" modelName="custom" textColor="#000000" verticalTextPosition="bottom" visible="true" width="69.361328125" x="33.99999999999994" y="7.298828125">mouseMove<y:LabelModel>
                  <y:SmartNodeLabelModel distance="4.0"/>
                </y:LabelModel>
                <y:ModelParameter>
                  <y:SmartNodeLabelModelParameter labelRatioX="-0.5" labelRatioY="0.5" nodeRatioX="0.5" nodeRatioY="0.5" offsetX="4.0" offsetY="-4.0" upX="0.0" upY="-1.0"/>
                </y:ModelParameter>
              </y:NodeLabel>
              <y:StyleProperties>
                <y:Property class="java.awt.Color" name="com.yworks.bpmn.icon.line.color" value="#000000"/>
                <y:Property class="com.yworks.yfiles.bpmn.view.EventCharEnum" name="com.yworks.bpmn.characteristic" value="EVENT_CHARACTERISTIC_START"/>
                <y:Property class="java.awt.Color" name="com.yworks.bpmn.icon.fill2" value="#d4d4d4cc"/>
                <y:Property class="java.awt.Color" name="com.yworks.bpmn.icon.fill" value="#ffffffe6"/>
                <y:Property class="com.yworks.yfiles.bpmn.view.BPMNTypeEnum" name="com.yworks.bpmn.type" value="EVENT_TYPE_SIGNAL"/>
              </y:StyleProperties>
            </y:GenericNode>
          </data>
        </node>
        <node id="n0::n3">
          <data key="d6">
            <y:GenericNode configuration="com.yworks.bpmn.Activity.withShadow">
              <y:Geometry height="20.0" width="150.0" x="473.6943639037734" y="428.08984602292696"/>
              <y:Fill color="#FFFFFFE6" color2="#D4D4D4CC" transparent="false"/>
              <y:BorderStyle color="#123EA2" type="line" width="1.0"/>
              <y:NodeLabel alignment="center" autoSizePolicy="content" fontFamily="Dialog" fontSize="12" fontStyle="plain" hasBackgroundColor="false" hasLineColor="false" height="18.701171875" horizontalTextPosition="center" iconTextGap="4" modelName="custom" textColor="#000000" verticalTextPosition="bottom" visible="true" width="147.40234375" x="1.2988281249999432" y="0.6494140625">compute_view_projection()<y:LabelModel>
                  <y:SmartNodeLabelModel distance="4.0"/>
                </y:LabelModel>
                <y:ModelParameter>
                  <y:SmartNodeLabelModelParameter labelRatioX="0.0" labelRatioY="0.0" nodeRatioX="0.0" nodeRatioY="0.0" offsetX="0.0" offsetY="0.0" upX="0.0" upY="-1.0"/>
                </y:ModelParameter>
              </y:NodeLabel>
              <y:StyleProperties>
                <y:Property class="java.awt.Color" name="com.yworks.bpmn.icon.line.color" value="#000000"/>
                <y:Property class="com.yworks.yfiles.bpmn.view.TaskTypeEnum" name="com.yworks.bpmn.taskType" value="TASK_TYPE_ABSTRACT"/>
                <y:Property class="java.awt.Color" name="com.yworks.bpmn.icon.fill2" value="#d4d4d4cc"/>
                <y:Property class="java.awt.Color" name="com.yworks.bpmn.icon.fill" value="#ffffffe6"/>
                <y:Property class="com.yworks.yfiles.bpmn.view.BPMNTypeEnum" name="com.yworks.bpmn.type" value="ACTIVITY_TYPE"/>
                <y:Property class="com.yworks.yfiles.bpmn.view.ActivityTypeEnum" name="com.yworks.bpmn.activityType" value="ACTIVITY_TYPE_TASK"/>
              </y:StyleProperties>
            </y:GenericNode>
          </data>
        </node>
        <node id="n0::n4">
          <data key="d6">
            <y:GenericNode configuration="com.yworks.bpmn.Activity.withShadow">
              <y:Geometry height="20.0" width="131.4768295728146" x="473.6943639037734" y="478.08984602292696"/>
              <y:Fill color="#FFFFFFE6" color2="#D4D4D4CC" transparent="false"/>
              <y:BorderStyle color="#123EA2" type="line" width="1.0"/>
              <y:NodeLabel alignment="center" autoSizePolicy="content" fontFamily="Dialog" fontSize="12" fontStyle="plain" hasBackgroundColor="false" hasLineColor="false" height="18.701171875" horizontalTextPosition="center" iconTextGap="4" modelName="custom" textColor="#000000" verticalTextPosition="bottom" visible="true" width="118.05859375" x="6.709117911407304" y="0.6494140625">get_view_projection()<y:LabelModel>
                  <y:SmartNodeLabelModel distance="4.0"/>
                </y:LabelModel>
                <y:ModelParameter>
                  <y:SmartNodeLabelModelParameter labelRatioX="0.0" labelRatioY="0.0" nodeRatioX="0.0" nodeRatioY="0.0" offsetX="0.0" offsetY="0.0" upX="0.0" upY="-1.0"/>
                </y:ModelParameter>
              </y:NodeLabel>
              <y:StyleProperties>
                <y:Property class="java.awt.Color" name="com.yworks.bpmn.icon.line.color" value="#000000"/>
                <y:Property class="com.yworks.yfiles.bpmn.view.TaskTypeEnum" name="com.yworks.bpmn.taskType" value="TASK_TYPE_ABSTRACT"/>
                <y:Property class="java.awt.Color" name="com.yworks.bpmn.icon.fill2" value="#d4d4d4cc"/>
                <y:Property class="java.awt.Color" name="com.yworks.bpmn.icon.fill" value="#ffffffe6"/>
                <y:Property class="com.yworks.yfiles.bpmn.view.BPMNTypeEnum" name="com.yworks.bpmn.type" value="ACTIVITY_TYPE"/>
                <y:Property class="com.yworks.yfiles.bpmn.view.ActivityTypeEnum" name="com.yworks.bpmn.activityType" value="ACTIVITY_TYPE_TASK"/>
              </y:StyleProperties>
            </y:GenericNode>
          </data>
        </node>
        <node id="n0::n5">
          <data key="d6">
            <y:GenericNode configuration="com.yworks.bpmn.Event.withShadow">
              <y:Geometry height="30.0" width="30.0" x="645.0" y="423.08984602292696"/>
              <y:Fill color="#FFFFFFE6" color2="#D4D4D4CC" transparent="false"/>
              <y:BorderStyle color="#DCBA00" type="line" width="1.0"/>
              <y:NodeLabel alignment="center" autoSizePolicy="content" fontFamily="Dialog" fontSize="12" fontStyle="plain" hasBackgroundColor="false" hasLineColor="false" height="18.701171875" horizontalTextPosition="center" iconTextGap="4" modelName="custom" textColor="#000000" verticalTextPosition="bottom" visible="true" width="40.69140625" x="34.0" y="5.6494140625">repaint<y:LabelModel>
                  <y:SmartNodeLabelModel distance="4.0"/>
                </y:LabelModel>
                <y:ModelParameter>
                  <y:SmartNodeLabelModelParameter labelRatioX="-0.5" labelRatioY="0.0" nodeRatioX="0.5" nodeRatioY="0.0" offsetX="4.0" offsetY="0.0" upX="0.0" upY="-1.0"/>
                </y:ModelParameter>
              </y:NodeLabel>
              <y:StyleProperties>
                <y:Property class="java.awt.Color" name="com.yworks.bpmn.icon.line.color" value="#000000"/>
                <y:Property class="com.yworks.yfiles.bpmn.view.EventCharEnum" name="com.yworks.bpmn.characteristic" value="EVENT_CHARACTERISTIC_INTERMEDIATE_CATCHING"/>
                <y:Property class="java.awt.Color" name="com.yworks.bpmn.icon.fill2" value="#d4d4d4cc"/>
                <y:Property class="java.awt.Color" name="com.yworks.bpmn.icon.fill" value="#ffffffe6"/>
                <y:Property class="com.yworks.yfiles.bpmn.view.BPMNTypeEnum" name="com.yworks.bpmn.type" value="EVENT_TYPE_LINK"/>
              </y:StyleProperties>
            </y:GenericNode>
          </data>
        </node>
        <node id="n0::n6">
          <data key="d6">
            <y:GenericNode configuration="com.yworks.bpmn.Event.withShadow">
              <y:Geometry height="30.0" width="30.0" x="645.0" y="368.08984602292696"/>
              <y:Fill color="#FFFFFFE6" color2="#D4D4D4CC" transparent="false"/>
              <y:BorderStyle color="#B11F1F" type="line" width="1.0"/>
              <y:NodeLabel alignment="center" autoSizePolicy="content" fontFamily="Dialog" fontSize="12" fontStyle="plain" hasBackgroundColor="false" hasLineColor="false" hasText="false" height="4.0" horizontalTextPosition="center" iconTextGap="4" modelName="custom" textColor="#000000" verticalTextPosition="bottom" visible="true" width="4.0" x="13.0" y="34.0">
                <y:LabelModel>
                  <y:SmartNodeLabelModel distance="4.0"/>
                </y:LabelModel>
                <y:ModelParameter>
                  <y:SmartNodeLabelModelParameter labelRatioX="0.0" labelRatioY="-0.5" nodeRatioX="0.0" nodeRatioY="0.5" offsetX="0.0" offsetY="4.0" upX="0.0" upY="-1.0"/>
                </y:ModelParameter>
              </y:NodeLabel>
              <y:StyleProperties>
                <y:Property class="java.awt.Color" name="com.yworks.bpmn.icon.line.color" value="#000000"/>
                <y:Property class="com.yworks.yfiles.bpmn.view.EventCharEnum" name="com.yworks.bpmn.characteristic" value="EVENT_CHARACTERISTIC_END"/>
                <y:Property class="java.awt.Color" name="com.yworks.bpmn.icon.fill2" value="#d4d4d4cc"/>
                <y:Property class="java.awt.Color" name="com.yworks.bpmn.icon.fill" value="#ffffffe6"/>
                <y:Property class="com.yworks.yfiles.bpmn.view.BPMNTypeEnum" name="com.yworks.bpmn.type" value="EVENT_TYPE_TERMINATE"/>
              </y:StyleProperties>
            </y:GenericNode>
          </data>
        </node>
      </graph>
    </node>
    <edge id="n0::e0" source="n0::n2" target="n0::n3">
      <data key="d10">
        <y:GenericEdge configuration="com.yworks.bpmn.Connection">
          <y:Path sx="0.0" sy="0.0" tx="-60.0" ty="0.0"/>
          <y:LineStyle color="#000000" type="line" width="1.0"/>
          <y:Arrows source="none" target="delta"/>
          <y:StyleProperties>
            <y:Property class="com.yworks.yfiles.bpmn.view.BPMNTypeEnum" name="com.yworks.bpmn.type" value="CONNECTION_TYPE_SEQUENCE_FLOW"/>
          </y:StyleProperties>
        </y:GenericEdge>
      </data>
    </edge>
    <edge id="n0::n0::e0" source="n0::n0::n0" target="n0::n0::n1">
      <data key="d10">
        <y:GenericEdge configuration="com.yworks.bpmn.Connection">
          <y:Path sx="0.0" sy="0.0" tx="0.0" ty="0.0"/>
          <y:LineStyle color="#000000" type="line" width="1.0"/>
          <y:Arrows source="none" target="delta"/>
          <y:StyleProperties>
            <y:Property class="com.yworks.yfiles.bpmn.view.BPMNTypeEnum" name="com.yworks.bpmn.type" value="CONNECTION_TYPE_SEQUENCE_FLOW"/>
          </y:StyleProperties>
        </y:GenericEdge>
      </data>
    </edge>
    <edge id="n0::e1" source="n0::n0::n3" target="n0::n1::n0">
      <data key="d10">
        <y:GenericEdge configuration="com.yworks.bpmn.Connection">
          <y:Path sx="0.0" sy="0.0" tx="0.0" ty="0.0"/>
          <y:LineStyle color="#000000" type="line" width="1.0"/>
          <y:Arrows source="none" target="delta"/>
          <y:EdgeLabel alignment="center" backgroundColor="#FFFFFF" configuration="AutoFlippingLabel" distance="2.0" fontFamily="Dialog" fontSize="12" fontStyle="plain" hasLineColor="false" height="18.701171875" horizontalTextPosition="center" iconTextGap="4" modelName="center_slider" preferredPlacement="anywhere" ratio="0.16666666666666666" textColor="#000000" verticalTextPosition="bottom" visible="true" width="22.673828125" x="34.62178433275136" y="-9.350595331679983">yes<y:PreferredPlacementDescriptor angle="0.0" angleOffsetOnRightSide="0" angleReference="absolute" angleRotationOnRightSide="co" distance="-1.0" frozen="true" placement="anywhere" side="anywhere" sideReference="relative_to_edge_flow"/>
          </y:EdgeLabel>
          <y:StyleProperties>
            <y:Property class="com.yworks.yfiles.bpmn.view.BPMNTypeEnum" name="com.yworks.bpmn.type" value="CONNECTION_TYPE_SEQUENCE_FLOW"/>
          </y:StyleProperties>
        </y:GenericEdge>
      </data>
    </edge>
    <edge id="n0::e2" source="n0::n1::n0" target="n0::n0::n4">
      <data key="d10">
        <y:GenericEdge configuration="com.yworks.bpmn.Connection">
          <y:Path sx="0.0" sy="0.0" tx="0.0" ty="0.0">
            <y:Point x="548.6943639037733" y="653.089846022927"/>
            <y:Point x="341.6498228847948" y="653.089846022927"/>
          </y:Path>
          <y:LineStyle color="#000000" type="line" width="1.0"/>
          <y:Arrows source="none" target="delta"/>
          <y:StyleProperties>
            <y:Property class="com.yworks.yfiles.bpmn.view.BPMNTypeEnum" name="com.yworks.bpmn.type" value="CONNECTION_TYPE_SEQUENCE_FLOW"/>
          </y:StyleProperties>
        </y:GenericEdge>
      </data>
    </edge>
    <edge id="n0::e3" source="n0::n0::n4" target="n0::n1::n1">
      <data key="d10">
        <y:GenericEdge configuration="com.yworks.bpmn.Connection">
          <y:Path sx="0.0" sy="0.0" tx="0.0" ty="0.0"/>
          <y:LineStyle color="#000000" type="line" width="1.0"/>
          <y:Arrows source="none" target="delta"/>
          <y:EdgeLabel alignment="center" backgroundColor="#FFFFFF" configuration="AutoFlippingLabel" distance="2.0" fontFamily="Dialog" fontSize="12" fontStyle="plain" hasLineColor="false" height="18.701171875" horizontalTextPosition="center" iconTextGap="4" modelName="center_slider" preferredPlacement="anywhere" ratio="0.0" textColor="#000000" verticalTextPosition="bottom" visible="true" width="22.673828125" x="10.171612435576037" y="-9.350595331679983">yes<y:PreferredPlacementDescriptor angle="0.0" angleOffsetOnRightSide="0" angleReference="absolute" angleRotationOnRightSide="co" distance="-1.0" frozen="true" placement="anywhere" side="anywhere" sideReference="relative_to_edge_flow"/>
          </y:EdgeLabel>
          <y:StyleProperties>
            <y:Property class="com.yworks.yfiles.bpmn.view.BPMNTypeEnum" name="com.yworks.bpmn.type" value="CONNECTION_TYPE_SEQUENCE_FLOW"/>
          </y:StyleProperties>
        </y:GenericEdge>
      </data>
    </edge>
    <edge id="n0::n0::e1" source="n0::n0::n3" target="n0::n0::n5">
      <data key="d10">
        <y:GenericEdge configuration="com.yworks.bpmn.Connection">
          <y:Path sx="0.0" sy="0.0" tx="-30.0" ty="0.0"/>
          <y:LineStyle color="#000000" type="line" width="1.0"/>
          <y:Arrows source="none" target="delta"/>
          <y:EdgeLabel alignment="center" backgroundColor="#FFFFFF" configuration="AutoFlippingLabel" distance="2.0" fontFamily="Dialog" fontSize="12" fontStyle="plain" hasLineColor="false" height="18.701171875" horizontalTextPosition="center" iconTextGap="4" modelName="center_slider" preferredPlacement="anywhere" ratio="0.0" textColor="#000000" verticalTextPosition="bottom" visible="true" width="17.34765625" x="-8.673816031220838" y="10.096731328476267">no<y:PreferredPlacementDescriptor angle="0.0" angleOffsetOnRightSide="0" angleReference="absolute" angleRotationOnRightSide="co" distance="-1.0" frozen="true" placement="anywhere" side="anywhere" sideReference="relative_to_edge_flow"/>
          </y:EdgeLabel>
          <y:StyleProperties>
            <y:Property class="com.yworks.yfiles.bpmn.view.BPMNTypeEnum" name="com.yworks.bpmn.type" value="CONNECTION_TYPE_SEQUENCE_FLOW"/>
          </y:StyleProperties>
        </y:GenericEdge>
      </data>
    </edge>
    <edge id="n0::n0::e2" source="n0::n0::n4" target="n0::n0::n5">
      <data key="d10">
        <y:GenericEdge configuration="com.yworks.bpmn.Connection">
          <y:Path sx="0.0" sy="0.0" tx="-30.0" ty="-2.832559361602762">
            <y:Point x="341.6498228847948" y="743.089846022927"/>
            <y:Point x="266.6498228847948" y="743.089846022927"/>
          </y:Path>
          <y:LineStyle color="#000000" type="line" width="1.0"/>
          <y:Arrows source="none" target="delta"/>
          <y:EdgeLabel alignment="center" backgroundColor="#FFFFFF" configuration="AutoFlippingLabel" distance="2.0" fontFamily="Dialog" fontSize="12" fontStyle="plain" hasLineColor="false" height="18.701171875" horizontalTextPosition="center" iconTextGap="4" modelName="center_slider" preferredPlacement="anywhere" ratio="0.3639010074816243" textColor="#000000" verticalTextPosition="bottom" visible="true" width="17.34765625" x="-46.17381603122084" y="3.438967116676963">no<y:PreferredPlacementDescriptor angle="0.0" angleOffsetOnRightSide="0" angleReference="absolute" angleRotationOnRightSide="co" distance="-1.0" frozen="true" placement="anywhere" side="anywhere" sideReference="relative_to_edge_flow"/>
          </y:EdgeLabel>
          <y:StyleProperties>
            <y:Property class="com.yworks.yfiles.bpmn.view.BPMNTypeEnum" name="com.yworks.bpmn.type" value="CONNECTION_TYPE_SEQUENCE_FLOW"/>
          </y:StyleProperties>
        </y:GenericEdge>
      </data>
    </edge>
    <edge id="n0::e4" source="n0::n1::n1" target="n0::n0::n5">
      <data key="d10">
        <y:GenericEdge configuration="com.yworks.bpmn.Connection">
          <y:Path sx="0.0" sy="0.0" tx="-30.0" ty="6.400243870662848">
            <y:Point x="539.4327786901806" y="758.4894802169327"/>
            <y:Point x="266.6498228847948" y="758.4894802169327"/>
          </y:Path>
          <y:LineStyle color="#000000" type="line" width="1.0"/>
          <y:Arrows source="none" target="delta"/>
          <y:StyleProperties>
            <y:Property class="com.yworks.yfiles.bpmn.view.BPMNTypeEnum" name="com.yworks.bpmn.type" value="CONNECTION_TYPE_SEQUENCE_FLOW"/>
          </y:StyleProperties>
        </y:GenericEdge>
      </data>
    </edge>
    <edge id="n0::e5" source="n0::n0::n1" target="n0::n4">
      <data key="d10">
        <y:GenericEdge configuration="com.yworks.bpmn.Connection">
          <y:Path sx="0.0" sy="0.0" tx="0.0" ty="0.0">
            <y:Point x="266.6498228847948" y="488.08984602292696"/>
          </y:Path>
          <y:LineStyle color="#000000" type="line" width="1.0"/>
          <y:Arrows source="none" target="delta"/>
          <y:StyleProperties>
            <y:Property class="com.yworks.yfiles.bpmn.view.BPMNTypeEnum" name="com.yworks.bpmn.type" value="CONNECTION_TYPE_SEQUENCE_FLOW"/>
          </y:StyleProperties>
        </y:GenericEdge>
      </data>
    </edge>
    <edge id="n0::e6" source="n0::n4" target="n0::n0::n3">
      <data key="d10">
        <y:GenericEdge configuration="com.yworks.bpmn.Connection">
          <y:Path sx="0.0" sy="0.0" tx="0.0" ty="0.0">
            <y:Point x="539.4327786901807" y="513.2758213745416"/>
            <y:Point x="266.6498228847948" y="513.2758213745416"/>
          </y:Path>
          <y:LineStyle color="#000000" type="line" width="1.0"/>
          <y:Arrows source="none" target="delta"/>
          <y:StyleProperties>
            <y:Property class="com.yworks.yfiles.bpmn.view.BPMNTypeEnum" name="com.yworks.bpmn.type" value="CONNECTION_TYPE_SEQUENCE_FLOW"/>
          </y:StyleProperties>
        </y:GenericEdge>
      </data>
    </edge>
    <edge id="n0::e7" source="n0::n0::n5" target="n0::n1::n2">
      <data key="d10">
        <y:GenericEdge configuration="com.yworks.bpmn.Connection">
          <y:Path sx="-29.649822884794787" sy="0.0" tx="0.0" ty="0.0">
            <y:Point x="267.0" y="863.089846022927"/>
          </y:Path>
          <y:LineStyle color="#000000" type="line" width="1.0"/>
          <y:Arrows source="none" target="delta"/>
          <y:StyleProperties>
            <y:Property class="com.yworks.yfiles.bpmn.view.BPMNTypeEnum" name="com.yworks.bpmn.type" value="CONNECTION_TYPE_SEQUENCE_FLOW"/>
          </y:StyleProperties>
        </y:GenericEdge>
      </data>
    </edge>
    <edge id="n0::e8" source="n0::n1::n2" target="n0::n0::n2">
      <data key="d10">
        <y:GenericEdge configuration="com.yworks.bpmn.Connection">
          <y:Path sx="0.0" sy="0.0" tx="0.0" ty="0.0">
            <y:Point x="501.44826637722196" y="887.3897240875956"/>
            <y:Point x="266.6498228847948" y="887.3897240875956"/>
          </y:Path>
          <y:LineStyle color="#000000" type="line" width="1.0"/>
          <y:Arrows source="none" target="delta"/>
          <y:StyleProperties>
            <y:Property class="com.yworks.yfiles.bpmn.view.BPMNTypeEnum" name="com.yworks.bpmn.type" value="CONNECTION_TYPE_SEQUENCE_FLOW"/>
          </y:StyleProperties>
        </y:GenericEdge>
      </data>
    </edge>
    <edge id="n0::e9" source="n0::n3" target="n0::n5">
      <data key="d10">
        <y:GenericEdge configuration="com.yworks.bpmn.Connection">
          <y:Path sx="0.0" sy="0.0" tx="0.0" ty="0.0"/>
          <y:LineStyle color="#000000" type="line" width="1.0"/>
          <y:Arrows source="none" target="delta"/>
          <y:StyleProperties>
            <y:Property class="com.yworks.yfiles.bpmn.view.BPMNTypeEnum" name="com.yworks.bpmn.type" value="CONNECTION_TYPE_SEQUENCE_FLOW"/>
          </y:StyleProperties>
        </y:GenericEdge>
      </data>
    </edge>
    <edge id="n0::e10" source="n0::n5" target="n0::n6">
      <data key="d10">
        <y:GenericEdge configuration="com.yworks.bpmn.Connection">
          <y:Path sx="0.0" sy="0.0" tx="0.0" ty="0.0"/>
          <y:LineStyle color="#000000" type="line" width="1.0"/>
          <y:Arrows source="none" target="delta"/>
          <y:StyleProperties>
            <y:Property class="com.yworks.yfiles.bpmn.view.BPMNTypeEnum" name="com.yworks.bpmn.type" value="CONNECTION_TYPE_SEQUENCE_FLOW"/>
          </y:StyleProperties>
        </y:GenericEdge>
      </data>
    </edge>
  </graph>
  <data key="d7">
    <y:Resources/>
  </data>
</graphml>
